[api-updater (non-obsolete-error-filter)] 8/13/2021 5:41:12 AM : Starting C:/Program Files/Unity Editors/2020.3.6f1/Editor/Data/Tools/ScriptUpdater/APIUpdater.NonObsoleteApiUpdaterDetector.exe
[api-updater (non-obsolete-error-filter)] 
----------------------------------
jit/startup time      : 1055.6605ms
moved types parse time: 87ms
candidates parse time : 2ms
C# parse time         : 390ms
candidates check time : 55ms
console write time    : 1ms

[api-updater (non-obsolete-error-filter)] 10/21/2021 11:49:52 PM : Starting C:/Program Files/Unity Editors/2020.3.6f1/Editor/Data/Tools/ScriptUpdater/APIUpdater.NonObsoleteApiUpdaterDetector.exe
[api-updater (non-obsolete-error-filter)] 
----------------------------------
jit/startup time      : 623.8526ms
moved types parse time: 46ms
candidates parse time : 1ms
C# parse time         : 221ms
candidates check time : 68ms
console write time    : 0ms

[api-updater (non-obsolete-error-filter)] 10/23/2021 1:55:52 AM : Starting C:/Program Files/Unity Editors/2020.3.6f1/Editor/Data/Tools/ScriptUpdater/APIUpdater.NonObsoleteApiUpdaterDetector.exe
[api-updater (non-obsolete-error-filter)] Exception caught while loading types from K:\newgit\vlc-unity-bugs\Library\ScriptAssemblies\Unity.TextMeshPro.Editor.dll (some types may not be loaded)
	Exception of type 'System.Reflection.ReflectionTypeLoadException' was thrown.
	  at (wrapper managed-to-native) System.Reflection.Assembly.GetTypes(System.Reflection.Assembly,bool)
  at System.Reflection.Assembly.GetTypes () [0x00000] in <695d1cc93cca45069c528c15c9fdd749>:0 
  at APIUpdater.NonObsoleteApiUpdaterDetector.ExtraInfoParser+<LoadTypesWithMovedFromAttributeAsync>d__3.MoveNext () [0x000c8] in <68bff7873e0e4aa69a14dfc30bebbe3e>:0 
	Could not load file or assembly 'UnityEditor.CoreModule, Version=0.0.0.0, Culture=neutral, PublicKeyToken=null' or one of its dependencies.

[api-updater (non-obsolete-error-filter)] 
----------------------------------
jit/startup time      : 346.5501ms
moved types parse time: 43ms
candidates parse time : 1ms
C# parse time         : 230ms
candidates check time : 75ms
console write time    : 0ms

[api-updater (non-obsolete-error-filter)] 11/16/2021 6:15:25 PM : Starting C:/Program Files/Unity Editors/2020.3.22f1/Editor/Data/Tools/ScriptUpdater/APIUpdater.NonObsoleteApiUpdaterDetector.exe
[api-updater (non-obsolete-error-filter)] 
----------------------------------
jit/startup time      : 849.7438ms
moved types parse time: 60ms
candidates parse time : 1ms
C# parse time         : 606ms
candidates check time : 40ms
console write time    : 0ms

[api-updater (non-obsolete-error-filter)] 11/17/2021 2:13:31 AM : Starting C:/Program Files/Unity Editors/2020.3.22f1/Editor/Data/Tools/ScriptUpdater/APIUpdater.NonObsoleteApiUpdaterDetector.exe
[api-updater (non-obsolete-error-filter)] 
----------------------------------
jit/startup time      : 738.7637ms
moved types parse time: 42ms
candidates parse time : 1ms
C# parse time         : 182ms
candidates check time : 34ms
console write time    : 0ms

[api-updater (non-obsolete-error-filter)] 11/17/2021 2:14:51 AM : Starting C:/Program Files/Unity Editors/2020.3.22f1/Editor/Data/Tools/ScriptUpdater/APIUpdater.NonObsoleteApiUpdaterDetector.exe
[api-updater (non-obsolete-error-filter)] 
----------------------------------
jit/startup time      : 81.972ms
moved types parse time: 55ms
candidates parse time : 1ms
C# parse time         : 197ms
candidates check time : 34ms
console write time    : 0ms

[api-updater (non-obsolete-error-filter)] 11/19/2021 6:15:43 PM : Starting C:/Program Files/Unity Editors/2020.3.22f1/Editor/Data/Tools/ScriptUpdater/APIUpdater.NonObsoleteApiUpdaterDetector.exe
[api-updater (non-obsolete-error-filter)] 
----------------------------------
jit/startup time      : 1116.9555ms
moved types parse time: 56ms
candidates parse time : 1ms
C# parse time         : 283ms
candidates check time : 45ms
console write time    : 0ms

[api-updater (non-obsolete-error-filter)] 11/19/2021 7:15:02 PM : Starting C:/Program Files/Unity Editors/2020.3.22f1/Editor/Data/Tools/ScriptUpdater/APIUpdater.NonObsoleteApiUpdaterDetector.exe
[api-updater (non-obsolete-error-filter)] 
----------------------------------
jit/startup time      : 667.7856ms
moved types parse time: 257ms
candidates parse time : 2ms
C# parse time         : 646ms
candidates check time : 109ms
console write time    : 0ms

[api-updater (non-obsolete-error-filter)] 11/19/2021 7:15:23 PM : Starting C:/Program Files/Unity Editors/2020.3.22f1/Editor/Data/Tools/ScriptUpdater/APIUpdater.NonObsoleteApiUpdaterDetector.exe
[api-updater (non-obsolete-error-filter)] 
----------------------------------
jit/startup time      : 119.9617ms
moved types parse time: 85ms
candidates parse time : 1ms
C# parse time         : 269ms
candidates check time : 83ms
console write time    : 0ms

[api-updater (non-obsolete-error-filter)] 11/19/2021 7:15:41 PM : Starting C:/Program Files/Unity Editors/2020.3.22f1/Editor/Data/Tools/ScriptUpdater/APIUpdater.NonObsoleteApiUpdaterDetector.exe
[api-updater (non-obsolete-error-filter)] 
----------------------------------
jit/startup time      : 93.969ms
moved types parse time: 64ms
candidates parse time : 1ms
C# parse time         : 260ms
candidates check time : 80ms
console write time    : 0ms

[api-updater (non-obsolete-error-filter)] 2/4/2022 8:51:56 PM : Starting C:/Program Files/Unity Editors/2020.3.22f1/Editor/Data/Tools/ScriptUpdater/APIUpdater.NonObsoleteApiUpdaterDetector.exe
[api-updater (non-obsolete-error-filter)] 
----------------------------------
jit/startup time      : 635.2077ms
moved types parse time: 53ms
candidates parse time : 1ms
C# parse time         : 597ms
candidates check time : 145ms
console write time    : 0ms

